{
  "project_info": {
    "project_number": "1027907124043",
    "project_id": "fir-example-c203b",
    "storage_bucket": "fir-example-c203b.appspot.com"
  },
  "client": [
    {
      "client_info": {
        "mobilesdk_app_id": "1:1027907124043:android:27386abcd281256792c6ce",
        "android_client_info": {
          "package_name": "com.appvesto.exercises"
        }
      },
      "oauth_client": [
        {
          "client_id": "1027907124043-lp3b1rfejk5slb8l7jd78vukdiqleabp.apps.googleusercontent.com",
          "client_type": 3
        }
      ],
      "api_key": [
        {
          "current_key": "AIzaSyA_N8QmStYpTAcDwQs7k62Ir7Au0uM-Jqc"
        }
      ],
      "services": {
        "appinvite_service": {
          "other_platform_oauth_client": [
            {
              "client_id": "1027907124043-lp3b1rfejk5slb8l7jd78vukdiqleabp.apps.googleusercontent.com",
              "client_type": 3
            }
          ]
        }
      }
    }
  ],
  "configuration_version": "1"
}